{
  "LuaSnip": { "branch": "master", "commit": "c9b9a22904c97d0eb69ccb9bab76037838326817" },
  "NvChad": { "branch": "v2.5", "commit": "6f25b2739684389ca69ea8229386c098c566c408" },
  "alpha-nvim": { "branch": "main", "commit": "de72250e054e5e691b9736ee30db72c65d560771" },
  "base46": { "branch": "v2.5", "commit": "fde7a2cd54599e148d376f82980407c2d24b0fa2" },
  "calendar-vim": { "branch": "master", "commit": "2083a41e2d310f9bbbbf644517f30e901f1fb04d" },
  "cmp-buffer": { "branch": "main", "commit": "3022dbc9166796b644a841a02de8dd1cc1d311fa" },
  "cmp-nvim-lsp": { "branch": "main", "commit": "99290b3ec1322070bcfb9e846450a46f6efa50f0" },
  "cmp-nvim-lua": { "branch": "main", "commit": "f12408bdb54c39c23e67cab726264c10db33ada8" },
  "cmp-path": { "branch": "main", "commit": "91ff86cd9c29299a64f968ebb45846c485725f23" },
  "cmp_luasnip": { "branch": "master", "commit": "98d9cb5c2c38532bd9bdb481067b20fea8f32e90" },
  "conform.nvim": { "branch": "master", "commit": "a6f5bdb78caa305496357d17e962bbc4c0b392e2" },
  "copilot.vim": { "branch": "release", "commit": "cd7f01009fb7b30e22840cadc4faad88b05c6eef" },
  "friendly-snippets": { "branch": "main", "commit": "efff286dd74c22f731cdec26a70b46e5b203c619" },
  "gitsigns.nvim": { "branch": "main", "commit": "4c40357994f386e72be92a46f41fc1664c84c87d" },
  "indent-blankline.nvim": { "branch": "master", "commit": "e10626f7fcd51ccd56d7ffc00883ba7e0aa28f78" },
  "lazy.nvim": { "branch": "main", "commit": "a8c6db5da7bd382094606340eed015d14fbb5654" },
  "markdown-preview.nvim": { "branch": "master", "commit": "a923f5fc5ba36a3b17e289dc35dc17f66d0548ee" },
  "mason.nvim": { "branch": "main", "commit": "fc98833b6da5de5a9c5b1446ac541577059555be" },
  "menu": { "branch": "main", "commit": "7769b17c2a131108c02b10e9f844e504aa605cc2" },
  "minty": { "branch": "main", "commit": "6dce9f097667862537823d515a0250ce58faab05" },
  "nvim-autopairs": { "branch": "master", "commit": "68f0e5c3dab23261a945272032ee6700af86227a" },
  "nvim-cmp": { "branch": "main", "commit": "5a11682453ac6b13dbf32cd403da4ee9c07ef1c3" },
  "nvim-code-action-menu": { "branch": "main", "commit": "8c7672a4b04d3cc4edd2c484d05b660a9cb34a1b" },
  "nvim-dap": { "branch": "master", "commit": "379cf26e9c457b66a0152cd5d018418c03720d47" },
  "nvim-dap-python": { "branch": "master", "commit": "34282820bb713b9a5fdb120ae8dd85c2b3f49b51" },
  "nvim-lspconfig": { "branch": "master", "commit": "9e932edb0af4e20880685ddb96a231669fbe8091" },
  "nvim-tree.lua": { "branch": "master", "commit": "6709463b2d18e77f7a946027917aa00d4aaed6f4" },
  "nvim-treesitter": { "branch": "master", "commit": "36c78ee5729602e2deedc35935823af89631052d" },
  "nvim-web-devicons": { "branch": "master", "commit": "1020869742ecb191f260818234517f4a1515cfe8" },
  "plenary.nvim": { "branch": "master", "commit": "857c5ac632080dba10aae49dba902ce3abf91b35" },
  "telescope.nvim": { "branch": "master", "commit": "814f102cd1da3dc78c7d2f20f2ef3ed3cdf0e6e4" },
  "ui": { "branch": "v3.0", "commit": "81dc7960c1362a06e34e07b41221d71e904e99ba" },
  "vimwiki": { "branch": "dev", "commit": "72792615e739d0eb54a9c8f7e0a46a6e2407c9e8" },
  "volt": { "branch": "main", "commit": "21a2351697abfed26d4469b88d3ab124d55a1b3f" },
  "which-key.nvim": { "branch": "main", "commit": "370ec46f710e058c9c1646273e6b225acf47cbed" }
}
